module jamesmcdonald.com/cfdnsupdater

go 1.22

require (
	github.com/cloudflare/cloudflare-go v0.99.0
	github.com/prometheus/client_golang v1.19.1
	github.com/sirupsen/logrus v1.9.3
)

require (
	github.com/beorn7/perks v1.0.1 // indirect
	github.com/cespare/xxhash/v2 v2.3.0 // indirect
	github.com/goccy/go-json v0.10.3 // indirect
	github.com/google/go-querystring v1.1.0 // indirect
	github.com/hashicorp/go-cleanhttp v0.5.2 // indirect
	github.com/hashicorp/go-retryablehttp v0.7.7 // indirect
	github.com/munnerz/goautoneg v0.0.0-20191010083416-a7dc8b61c822 // indirect
	github.com/prometheus/client_model v0.6.1 // indirect
	github.com/prometheus/common v0.55.0 // indirect
	github.com/prometheus/procfs v0.15.1 // indirect
	golang.org/x/net v0.27.0 // indirect
	golang.org/x/sys v0.22.0 // indirect
	golang.org/x/text v0.16.0 // indirect
	golang.org/x/time v0.5.0 // indirect
	google.golang.org/protobuf v1.34.2 // indirect
)
